%YAML 1.1
%TAG !u! tag:unity3d.com,2011:
--- !u!114 &11400000
MonoBehaviour:
  m_ObjectHideFlags: 0
  m_PrefabParentObject: {fileID: 0}
  m_PrefabInternal: {fileID: 0}
  m_GameObject: {fileID: 0}
  m_Enabled: 1
  m_EditorHideFlags: 0
  m_Script: {fileID: 11500000, guid: cb65d1eb2b4e8407ea976992d1d60cd9, type: 3}
  m_Name: Triangle Food
  m_EditorClassIdentifier: 
  foodName: Triangle Food
  foodDescription: A descriptive food item
  category: 2
  pointValue: 1
  sprite: {fileID: 21300000, guid: 5f60d091740194efab0b3c838fc26809, type: 3}
  trackIndex: 0
